{
  "file_generated_by": "FlutterFire CLI",
  "purpose": "FirebaseAppID & ProjectID for this Firebase app in this directory",
  "GOOGLE_APP_ID": "1:1052104341692:ios:f5cba9e956457ae175f8b9",
  "FIREBASE_PROJECT_ID": "book-friends-1e196",
  "GCM_SENDER_ID": "1052104341692"
}